{
  "version": "1.0",
  "enums":{
    "Messages": {"Flat":1, "Undertones":2}
  },
  "messages":{
    "State": { "id": { "type":"string", "id":1}, "code": { "type": "int32", "id":2 }},
    "Lex": { "Date": { "type": "time", "id":1}},
    "Hello": {
      "name":  { "type": "string", "id":"3", "required": true},
      "addresses" : { "type": "string", "id":1, "list": true},
      "status": { "type": "enum", "name":"Messages", "id":4},
      "state": { "type": "message", "name": "State", "id":5},
      "codes" : { "type": "message", "name": "Lex", "list": true, "id":6}
    }
  }
}